<?xml version="1.0" encoding="utf-8"?>
<!DOCTYPE eagle SYSTEM "eagle.dtd">
<eagle version="9.6.2">
<drawing>
<settings>
<setting alwaysvectorfont="no"/>
<setting verticaltext="up"/>
</settings>
<grid distance="0.1" unitdist="inch" unit="inch" style="lines" multiple="1" display="no" altdistance="0.01" altunitdist="inch" altunit="inch"/>
<layers>
<layer number="1" name="Top" color="4" fill="1" visible="no" active="no"/>
<layer number="2" name="Route2" color="16" fill="1" visible="no" active="no"/>
<layer number="3" name="Route3" color="17" fill="1" visible="no" active="no"/>
<layer number="4" name="Route4" color="18" fill="1" visible="no" active="no"/>
<layer number="5" name="Route5" color="19" fill="1" visible="no" active="no"/>
<layer number="6" name="Route6" color="25" fill="1" visible="no" active="no"/>
<layer number="7" name="Route7" color="26" fill="1" visible="no" active="no"/>
<layer number="8" name="Route8" color="27" fill="1" visible="no" active="no"/>
<layer number="9" name="Route9" color="28" fill="1" visible="no" active="no"/>
<layer number="10" name="Route10" color="29" fill="1" visible="no" active="no"/>
<layer number="11" name="Route11" color="30" fill="1" visible="no" active="no"/>
<layer number="12" name="Route12" color="20" fill="1" visible="no" active="no"/>
<layer number="13" name="Route13" color="21" fill="1" visible="no" active="no"/>
<layer number="14" name="Route14" color="22" fill="1" visible="no" active="no"/>
<layer number="15" name="Route15" color="23" fill="1" visible="no" active="no"/>
<layer number="16" name="Bottom" color="1" fill="1" visible="no" active="no"/>
<layer number="17" name="Pads" color="2" fill="1" visible="no" active="no"/>
<layer number="18" name="Vias" color="2" fill="1" visible="no" active="no"/>
<layer number="19" name="Unrouted" color="6" fill="1" visible="no" active="no"/>
<layer number="20" name="Dimension" color="24" fill="1" visible="no" active="no"/>
<layer number="21" name="tPlace" color="7" fill="1" visible="no" active="no"/>
<layer number="22" name="bPlace" color="7" fill="1" visible="no" active="no"/>
<layer number="23" name="tOrigins" color="15" fill="1" visible="no" active="no"/>
<layer number="24" name="bOrigins" color="15" fill="1" visible="no" active="no"/>
<layer number="25" name="tNames" color="7" fill="1" visible="no" active="no"/>
<layer number="26" name="bNames" color="7" fill="1" visible="no" active="no"/>
<layer number="27" name="tValues" color="7" fill="1" visible="no" active="no"/>
<layer number="28" name="bValues" color="7" fill="1" visible="no" active="no"/>
<layer number="29" name="tStop" color="7" fill="3" visible="no" active="no"/>
<layer number="30" name="bStop" color="7" fill="6" visible="no" active="no"/>
<layer number="31" name="tCream" color="7" fill="4" visible="no" active="no"/>
<layer number="32" name="bCream" color="7" fill="5" visible="no" active="no"/>
<layer number="33" name="tFinish" color="6" fill="3" visible="no" active="no"/>
<layer number="34" name="bFinish" color="6" fill="6" visible="no" active="no"/>
<layer number="35" name="tGlue" color="7" fill="4" visible="no" active="no"/>
<layer number="36" name="bGlue" color="7" fill="5" visible="no" active="no"/>
<layer number="37" name="tTest" color="7" fill="1" visible="no" active="no"/>
<layer number="38" name="bTest" color="7" fill="1" visible="no" active="no"/>
<layer number="39" name="tKeepout" color="4" fill="11" visible="no" active="no"/>
<layer number="40" name="bKeepout" color="1" fill="11" visible="no" active="no"/>
<layer number="41" name="tRestrict" color="4" fill="10" visible="no" active="no"/>
<layer number="42" name="bRestrict" color="1" fill="10" visible="no" active="no"/>
<layer number="43" name="vRestrict" color="2" fill="10" visible="no" active="no"/>
<layer number="44" name="Drills" color="7" fill="1" visible="no" active="no"/>
<layer number="45" name="Holes" color="7" fill="1" visible="no" active="no"/>
<layer number="46" name="Milling" color="3" fill="1" visible="no" active="no"/>
<layer number="47" name="Measures" color="7" fill="1" visible="no" active="no"/>
<layer number="48" name="Document" color="7" fill="1" visible="no" active="no"/>
<layer number="49" name="Reference" color="7" fill="1" visible="no" active="no"/>
<layer number="50" name="dxf" color="7" fill="1" visible="no" active="no"/>
<layer number="51" name="tDocu" color="7" fill="1" visible="no" active="no"/>
<layer number="52" name="bDocu" color="7" fill="1" visible="no" active="no"/>
<layer number="53" name="tGND_GNDA" color="7" fill="9" visible="no" active="no"/>
<layer number="54" name="bGND_GNDA" color="1" fill="9" visible="no" active="no"/>
<layer number="56" name="wert" color="7" fill="1" visible="no" active="no"/>
<layer number="57" name="tCAD" color="7" fill="1" visible="no" active="no"/>
<layer number="59" name="tCarbon" color="7" fill="1" visible="no" active="no"/>
<layer number="60" name="bCarbon" color="7" fill="1" visible="no" active="no"/>
<layer number="88" name="SimResults" color="9" fill="1" visible="yes" active="yes"/>
<layer number="89" name="SimProbes" color="9" fill="1" visible="yes" active="yes"/>
<layer number="90" name="Modules" color="5" fill="1" visible="yes" active="yes"/>
<layer number="91" name="Nets" color="2" fill="1" visible="yes" active="yes"/>
<layer number="92" name="Busses" color="1" fill="1" visible="yes" active="yes"/>
<layer number="93" name="Pins" color="2" fill="1" visible="no" active="yes"/>
<layer number="94" name="Symbols" color="4" fill="1" visible="yes" active="yes"/>
<layer number="95" name="Names" color="7" fill="1" visible="yes" active="yes"/>
<layer number="96" name="Values" color="7" fill="1" visible="yes" active="yes"/>
<layer number="97" name="Info" color="7" fill="1" visible="yes" active="yes"/>
<layer number="98" name="Guide" color="6" fill="1" visible="yes" active="yes"/>
<layer number="99" name="SpiceOrder" color="7" fill="1" visible="yes" active="yes"/>
<layer number="100" name="Muster" color="7" fill="1" visible="no" active="no"/>
<layer number="101" name="Patch_Top" color="12" fill="4" visible="yes" active="yes"/>
<layer number="102" name="Vscore" color="7" fill="1" visible="yes" active="yes"/>
<layer number="103" name="tMap" color="7" fill="1" visible="yes" active="yes"/>
<layer number="104" name="Name" color="16" fill="1" visible="yes" active="yes"/>
<layer number="105" name="tPlate" color="7" fill="1" visible="yes" active="yes"/>
<layer number="106" name="bPlate" color="7" fill="1" visible="yes" active="yes"/>
<layer number="107" name="Crop" color="7" fill="1" visible="yes" active="yes"/>
<layer number="108" name="tplace-old" color="10" fill="1" visible="yes" active="yes"/>
<layer number="109" name="ref-old" color="11" fill="1" visible="yes" active="yes"/>
<layer number="110" name="fp0" color="7" fill="1" visible="yes" active="yes"/>
<layer number="111" name="LPC17xx" color="7" fill="1" visible="yes" active="yes"/>
<layer number="112" name="tSilk" color="7" fill="1" visible="yes" active="yes"/>
<layer number="113" name="IDFDebug" color="4" fill="1" visible="yes" active="yes"/>
<layer number="114" name="Badge_Outline" color="7" fill="1" visible="yes" active="yes"/>
<layer number="115" name="ReferenceISLANDS" color="7" fill="1" visible="yes" active="yes"/>
<layer number="116" name="Patch_BOT" color="9" fill="4" visible="yes" active="yes"/>
<layer number="118" name="Rect_Pads" color="7" fill="1" visible="yes" active="yes"/>
<layer number="121" name="_tsilk" color="7" fill="1" visible="yes" active="yes"/>
<layer number="122" name="_bsilk" color="7" fill="1" visible="yes" active="yes"/>
<layer number="123" name="tTestmark" color="7" fill="1" visible="yes" active="yes"/>
<layer number="124" name="bTestmark" color="7" fill="1" visible="yes" active="yes"/>
<layer number="125" name="_tNames" color="7" fill="1" visible="yes" active="yes"/>
<layer number="126" name="_bNames" color="7" fill="1" visible="yes" active="yes"/>
<layer number="127" name="_tValues" color="7" fill="1" visible="yes" active="yes"/>
<layer number="128" name="_bValues" color="7" fill="1" visible="yes" active="yes"/>
<layer number="129" name="Mask" color="7" fill="1" visible="yes" active="yes"/>
<layer number="131" name="tAdjust" color="7" fill="1" visible="yes" active="yes"/>
<layer number="132" name="bAdjust" color="7" fill="1" visible="yes" active="yes"/>
<layer number="144" name="Drill_legend" color="7" fill="1" visible="yes" active="yes"/>
<layer number="150" name="Notes" color="7" fill="1" visible="yes" active="yes"/>
<layer number="151" name="HeatSink" color="7" fill="1" visible="yes" active="yes"/>
<layer number="152" name="_bDocu" color="7" fill="1" visible="yes" active="yes"/>
<layer number="153" name="FabDoc1" color="7" fill="1" visible="yes" active="yes"/>
<layer number="154" name="FabDoc2" color="7" fill="1" visible="yes" active="yes"/>
<layer number="155" name="FabDoc3" color="7" fill="1" visible="yes" active="yes"/>
<layer number="199" name="Contour" color="7" fill="1" visible="yes" active="yes"/>
<layer number="200" name="200bmp" color="1" fill="10" visible="yes" active="yes"/>
<layer number="201" name="201bmp" color="2" fill="10" visible="yes" active="yes"/>
<layer number="202" name="202bmp" color="3" fill="10" visible="yes" active="yes"/>
<layer number="203" name="203bmp" color="4" fill="10" visible="yes" active="yes"/>
<layer number="204" name="204bmp" color="5" fill="10" visible="yes" active="yes"/>
<layer number="205" name="205bmp" color="6" fill="10" visible="yes" active="yes"/>
<layer number="206" name="206bmp" color="7" fill="10" visible="yes" active="yes"/>
<layer number="207" name="207bmp" color="8" fill="10" visible="yes" active="yes"/>
<layer number="208" name="208bmp" color="9" fill="10" visible="yes" active="yes"/>
<layer number="209" name="209bmp" color="7" fill="1" visible="yes" active="yes"/>
<layer number="210" name="210bmp" color="7" fill="1" visible="yes" active="yes"/>
<layer number="211" name="211bmp" color="7" fill="1" visible="yes" active="yes"/>
<layer number="212" name="212bmp" color="7" fill="1" visible="yes" active="yes"/>
<layer number="213" name="213bmp" color="7" fill="1" visible="yes" active="yes"/>
<layer number="214" name="214bmp" color="7" fill="1" visible="yes" active="yes"/>
<layer number="215" name="215bmp" color="7" fill="1" visible="yes" active="yes"/>
<layer number="216" name="216bmp" color="7" fill="1" visible="yes" active="yes"/>
<layer number="217" name="217bmp" color="18" fill="1" visible="no" active="no"/>
<layer number="218" name="218bmp" color="19" fill="1" visible="no" active="no"/>
<layer number="219" name="219bmp" color="20" fill="1" visible="no" active="no"/>
<layer number="220" name="220bmp" color="21" fill="1" visible="no" active="no"/>
<layer number="221" name="221bmp" color="22" fill="1" visible="no" active="no"/>
<layer number="222" name="222bmp" color="23" fill="1" visible="no" active="no"/>
<layer number="223" name="223bmp" color="24" fill="1" visible="no" active="no"/>
<layer number="224" name="224bmp" color="25" fill="1" visible="no" active="no"/>
<layer number="225" name="225bmp" color="7" fill="1" visible="yes" active="yes"/>
<layer number="226" name="226bmp" color="7" fill="1" visible="yes" active="yes"/>
<layer number="227" name="227bmp" color="7" fill="1" visible="yes" active="yes"/>
<layer number="228" name="228bmp" color="7" fill="1" visible="yes" active="yes"/>
<layer number="229" name="229bmp" color="7" fill="1" visible="yes" active="yes"/>
<layer number="230" name="230bmp" color="7" fill="1" visible="yes" active="yes"/>
<layer number="231" name="231bmp" color="7" fill="1" visible="yes" active="yes"/>
<layer number="232" name="Eagle3D_PG2" color="7" fill="1" visible="no" active="no"/>
<layer number="233" name="Eagle3D_PG3" color="7" fill="1" visible="no" active="no"/>
<layer number="248" name="Housing" color="7" fill="1" visible="yes" active="yes"/>
<layer number="249" name="Edge" color="7" fill="1" visible="yes" active="yes"/>
<layer number="250" name="Descript" color="3" fill="1" visible="no" active="no"/>
<layer number="251" name="SMDround" color="12" fill="11" visible="no" active="no"/>
<layer number="254" name="cooling" color="7" fill="1" visible="yes" active="yes"/>
<layer number="255" name="routoute" color="7" fill="1" visible="yes" active="yes"/>
</layers>
<schematic xreflabel="%F%N/%S.%C%R" xrefpart="/%S.%C%R">
<libraries>
<library name="SCCDRRV100MDSA3">
<packages>
<package name="DIP1270W53P254L1303H508Q8B" urn="urn:adsk.eagle:footprint:23793155/1" locally_modified="yes">
<description>8-DIP, 2.54 mm (0.10 in) pitch, 12.70 mm (0.50 in) span, 13.03 X 6.60 X 5.08 mm body
&lt;p&gt;8-pin DIP package with 2.54 mm (0.10 in) pitch, 12.70 mm (0.50 in) span with body size 13.03 X 6.60 X 5.08 mm&lt;/p&gt;</description>
<circle x="-7.5257" y="3.81" radius="0.25" width="0" layer="21"/>
<wire x1="-3.3" y1="4.7357" x2="-3.3" y2="6.515" width="0.12" layer="21"/>
<wire x1="-3.3" y1="6.515" x2="3.3" y2="6.515" width="0.12" layer="21"/>
<wire x1="3.3" y1="6.515" x2="3.3" y2="4.7357" width="0.12" layer="21"/>
<wire x1="-3.3" y1="-4.7357" x2="-3.3" y2="-6.515" width="0.12" layer="21"/>
<wire x1="-3.3" y1="-6.515" x2="3.3" y2="-6.515" width="0.12" layer="21"/>
<wire x1="3.3" y1="-6.515" x2="3.3" y2="-4.7357" width="0.12" layer="21"/>
<wire x1="3.3" y1="-6.515" x2="-3.3" y2="-6.515" width="0.12" layer="51"/>
<wire x1="-3.3" y1="-6.515" x2="-3.3" y2="6.515" width="0.12" layer="51"/>
<wire x1="-3.3" y1="6.515" x2="3.3" y2="6.515" width="0.12" layer="51"/>
<wire x1="3.3" y1="6.515" x2="3.3" y2="-6.515" width="0.12" layer="51"/>
<pad name="GND" x="-6.35" y="3.81" drill="0.7434" diameter="1.3434"/>
<pad name="VSUPPLY" x="-6.35" y="1.27" drill="0.7434" diameter="1.3434"/>
<pad name="MISO" x="-6.35" y="-1.27" drill="0.7434" diameter="1.3434"/>
<pad name="SCLK" x="-6.35" y="-3.81" drill="0.7434" diameter="1.3434"/>
<pad name="SS" x="6.35" y="-3.81" drill="0.7434" diameter="1.3434"/>
<pad name="6" x="6.35" y="-1.27" drill="0.7434" diameter="1.3434"/>
<pad name="7" x="6.35" y="1.27" drill="0.7434" diameter="1.3434"/>
<pad name="8" x="6.35" y="3.81" drill="0.7434" diameter="1.3434"/>
<text x="0" y="-8.09" size="1.27" layer="25" align="bottom-center">100MDSA3</text>
<wire x1="-2.54" y1="6.35" x2="-2.54" y2="10.16" width="0.127" layer="21"/>
<wire x1="-2.54" y1="10.16" x2="-1.27" y2="10.16" width="0.127" layer="21"/>
<wire x1="-1.27" y1="10.16" x2="-1.27" y2="6.35" width="0.127" layer="21"/>
<wire x1="2.54" y1="6.35" x2="2.54" y2="10.16" width="0.127" layer="21"/>
<wire x1="2.54" y1="10.16" x2="1.27" y2="10.16" width="0.127" layer="21"/>
<wire x1="1.27" y1="10.16" x2="1.27" y2="6.35" width="0.127" layer="21"/>
</package>
</packages>
<packages3d>
<package3d name="DIP1270W53P254L1303H508Q8B" urn="urn:adsk.eagle:package:23793141/1" type="model">
<description>8-DIP, 2.54 mm (0.10 in) pitch, 12.70 mm (0.50 in) span, 13.03 X 6.60 X 5.08 mm body
&lt;p&gt;8-pin DIP package with 2.54 mm (0.10 in) pitch, 12.70 mm (0.50 in) span with body size 13.03 X 6.60 X 5.08 mm&lt;/p&gt;</description>
<packageinstances>
<packageinstance name="DIP1270W53P254L1303H508Q8B"/>
</packageinstances>
</package3d>
</packages3d>
<symbols>
<symbol name="SCCDRRV100MDSA3">
<pin name="GND" x="-5.08" y="0" length="middle"/>
<pin name="VSUPPLY" x="-5.08" y="2.54" length="middle"/>
<pin name="MISO" x="-5.08" y="5.08" length="middle"/>
<pin name="SCLK" x="-5.08" y="7.62" length="middle"/>
<pin name="SS" x="-5.08" y="10.16" length="middle"/>
<wire x1="0" y1="12.7" x2="0" y2="-2.54" width="0.254" layer="94"/>
<wire x1="0" y1="-2.54" x2="15.24" y2="-2.54" width="0.254" layer="94"/>
<wire x1="15.24" y1="-2.54" x2="15.24" y2="12.7" width="0.254" layer="94"/>
<wire x1="15.24" y1="12.7" x2="0" y2="12.7" width="0.254" layer="94"/>
</symbol>
</symbols>
<devicesets>
<deviceset name="SCCDRRV100MDSA3">
<gates>
<gate name="G$1" symbol="SCCDRRV100MDSA3" x="-7.62" y="-5.08"/>
</gates>
<devices>
<device name="SSCDRRV100MDSA3" package="DIP1270W53P254L1303H508Q8B">
<connects>
<connect gate="G$1" pin="GND" pad="GND"/>
<connect gate="G$1" pin="MISO" pad="MISO"/>
<connect gate="G$1" pin="SCLK" pad="SCLK"/>
<connect gate="G$1" pin="SS" pad="SS"/>
<connect gate="G$1" pin="VSUPPLY" pad="VSUPPLY"/>
</connects>
<package3dinstances>
<package3dinstance package3d_urn="urn:adsk.eagle:package:23793141/1"/>
</package3dinstances>
<technologies>
<technology name=""/>
</technologies>
</device>
</devices>
</deviceset>
</devicesets>
</library>
<library name="supply1" urn="urn:adsk.eagle:library:371">
<description>&lt;b&gt;Supply Symbols&lt;/b&gt;&lt;p&gt;
 GND, VCC, 0V, +5V, -5V, etc.&lt;p&gt;
 Please keep in mind, that these devices are necessary for the
 automatic wiring of the supply signals.&lt;p&gt;
 The pin name defined in the symbol is identical to the net which is to be wired automatically.&lt;p&gt;
 In this library the device names are the same as the pin names of the symbols, therefore the correct signal names appear next to the supply symbols in the schematic.&lt;p&gt;
 &lt;author&gt;Created by librarian@cadsoft.de&lt;/author&gt;</description>
<packages>
</packages>
<symbols>
<symbol name="GND" urn="urn:adsk.eagle:symbol:26925/1" library_version="1">
<wire x1="-1.905" y1="0" x2="1.905" y2="0" width="0.254" layer="94"/>
<text x="-2.54" y="-2.54" size="1.778" layer="96">&gt;VALUE</text>
<pin name="GND" x="0" y="2.54" visible="off" length="short" direction="sup" rot="R270"/>
</symbol>
<symbol name="VCC" urn="urn:adsk.eagle:symbol:26928/1" library_version="1">
<wire x1="1.27" y1="-1.905" x2="0" y2="0" width="0.254" layer="94"/>
<wire x1="0" y1="0" x2="-1.27" y2="-1.905" width="0.254" layer="94"/>
<text x="-2.54" y="-2.54" size="1.778" layer="96" rot="R90">&gt;VALUE</text>
<pin name="VCC" x="0" y="-2.54" visible="off" length="short" direction="sup" rot="R90"/>
</symbol>
</symbols>
<devicesets>
<deviceset name="GND" urn="urn:adsk.eagle:component:26954/1" prefix="GND" library_version="1">
<description>&lt;b&gt;SUPPLY SYMBOL&lt;/b&gt;</description>
<gates>
<gate name="1" symbol="GND" x="0" y="0"/>
</gates>
<devices>
<device name="">
<technologies>
<technology name=""/>
</technologies>
</device>
</devices>
</deviceset>
<deviceset name="VCC" urn="urn:adsk.eagle:component:26957/1" prefix="P+" library_version="1">
<description>&lt;b&gt;SUPPLY SYMBOL&lt;/b&gt;</description>
<gates>
<gate name="VCC" symbol="VCC" x="0" y="0"/>
</gates>
<devices>
<device name="">
<technologies>
<technology name=""/>
</technologies>
</device>
</devices>
</deviceset>
</devicesets>
</library>
<library name="Rembrandt Electronics - JST XH Connectors v1-0">
<packages>
<package name="JST-XH-06-PACKAGE-LONG-PAD">
<description>&lt;b&gt;JST XH Connector Long Pads (Package)&lt;/b&gt;&lt;p&gt;

Wire to board connector.

Pitch: 2,54 mm, (0.100")&lt;p&gt;
Number of pins: &lt;b&gt;6&lt;/b&gt;&lt;b&gt;&lt;P&gt;

&lt;b&gt;Created by Rembrandt Electronics&lt;/b&gt;&lt;p&gt;
&lt;b&gt;www.rembrandtelectronics.com&lt;/b&gt;&lt;p&gt;</description>
<wire x1="8.7" y1="-2.3575" x2="8.7" y2="3.3925" width="0.254" layer="21"/>
<wire x1="8.7" y1="3.3925" x2="-8.7" y2="3.3925" width="0.254" layer="21"/>
<wire x1="-8.7" y1="3.3925" x2="-8.7" y2="-2.3575" width="0.254" layer="21"/>
<wire x1="-8.7" y1="-2.3575" x2="8.7" y2="-2.3575" width="0.254" layer="21"/>
<pad name="3" x="-1.27" y="0" drill="1.016" shape="long" rot="R90"/>
<pad name="2" x="-3.81" y="0" drill="1.016" shape="long" rot="R90"/>
<pad name="1" x="-6.35" y="0" drill="1.016" shape="long" rot="R90"/>
<pad name="4" x="1.27" y="0" drill="1.016" shape="long" rot="R90"/>
<pad name="5" x="3.81" y="0" drill="1.016" shape="long" rot="R90"/>
<text x="-9.255" y="-2.14" size="1.016" layer="25" ratio="10" rot="R90">&gt;NAME</text>
<text x="-8.3025" y="3.8925" size="0.8128" layer="27" ratio="10">&gt;VALUE</text>
<text x="-7.9675" y="-1.5875" size="1.016" layer="51" ratio="10">1</text>
<wire x1="-6.3" y1="-2.3" x2="-6.3" y2="-1.8" width="0.254" layer="21"/>
<wire x1="6.4" y1="-2.3" x2="6.4" y2="-1.8" width="0.254" layer="21"/>
<pad name="6" x="6.35" y="0" drill="1.016" shape="long" rot="R90"/>
</package>
<package name="JST-XH-06-PACKAGE-ROUND-PAD">
<description>&lt;b&gt;JST XH Connector Round Pads (Package)&lt;/b&gt;&lt;p&gt;

Wire to board connector.

Pitch: 2,54 mm, (0.100")&lt;p&gt;
Number of pins: &lt;b&gt;6&lt;/b&gt;&lt;b&gt;&lt;P&gt;

&lt;b&gt;Created by Rembrandt Electronics&lt;/b&gt;&lt;p&gt;
&lt;b&gt;www.rembrandtelectronics.com&lt;/b&gt;&lt;p&gt;</description>
<wire x1="8.7" y1="-2.3575" x2="8.7" y2="3.3925" width="0.254" layer="21"/>
<wire x1="8.7" y1="3.3925" x2="-8.7" y2="3.3925" width="0.254" layer="21"/>
<wire x1="-8.7" y1="3.3925" x2="-8.7" y2="-2.3575" width="0.254" layer="21"/>
<wire x1="-8.7" y1="-2.3575" x2="8.7" y2="-2.3575" width="0.254" layer="21"/>
<pad name="3" x="-1.27" y="0" drill="1.016" rot="R90"/>
<pad name="2" x="-3.81" y="0" drill="1.016" rot="R90"/>
<pad name="1" x="-6.35" y="0" drill="1.016" rot="R90"/>
<pad name="4" x="1.27" y="0" drill="1.016" rot="R90"/>
<pad name="5" x="3.81" y="0" drill="1.016" rot="R90"/>
<text x="-9.255" y="-2.14" size="1.016" layer="25" ratio="10" rot="R90">&gt;NAME</text>
<text x="-8.3025" y="3.8925" size="0.8128" layer="27" ratio="10">&gt;VALUE</text>
<text x="-7.9675" y="-1.5875" size="1.016" layer="51" ratio="10">1</text>
<wire x1="-6.3" y1="-2.3" x2="-6.3" y2="-1.8" width="0.254" layer="21"/>
<wire x1="6.4" y1="-2.3" x2="6.4" y2="-1.8" width="0.254" layer="21"/>
<pad name="6" x="6.35" y="0" drill="1.016" rot="R90"/>
</package>
</packages>
<symbols>
<symbol name="MV">
<wire x1="1.27" y1="0" x2="0" y2="0" width="0.6096" layer="94"/>
<text x="2.54" y="-0.762" size="1.524" layer="95">&gt;NAME</text>
<text x="-0.762" y="1.397" size="1.778" layer="96">&gt;VALUE</text>
<pin name="S" x="-2.54" y="0" visible="off" length="short" direction="pas"/>
</symbol>
<symbol name="M">
<wire x1="1.27" y1="0" x2="0" y2="0" width="0.6096" layer="94"/>
<text x="2.54" y="-0.762" size="1.524" layer="95">&gt;NAME</text>
<pin name="S" x="-2.54" y="0" visible="off" length="short" direction="pas"/>
</symbol>
</symbols>
<devicesets>
<deviceset name="JST-XH-06-PIN" prefix="X">
<description>&lt;b&gt;JST XH Connector 2 Pin&lt;/b&gt;&lt;p&gt;

Wire to board connector.

Pitch: 2,54 mm, (0.100")&lt;p&gt;
Number of pins: &lt;b&gt;6&lt;/b&gt;&lt;b&gt;&lt;P&gt;

&lt;b&gt;Created by Rembrandt Electronics&lt;/b&gt;&lt;p&gt;
&lt;b&gt;www.rembrandtelectronics.com&lt;/b&gt;&lt;p&gt;</description>
<gates>
<gate name="-1" symbol="MV" x="2.54" y="0" addlevel="always" swaplevel="1"/>
<gate name="-2" symbol="M" x="2.54" y="-2.54" addlevel="always" swaplevel="1"/>
<gate name="-3" symbol="M" x="2.54" y="-5.08" addlevel="always" swaplevel="1"/>
<gate name="-4" symbol="M" x="2.54" y="-7.62" addlevel="always" swaplevel="1"/>
<gate name="-5" symbol="M" x="2.54" y="-10.16" addlevel="always" swaplevel="1"/>
<gate name="-6" symbol="M" x="2.54" y="-12.7" addlevel="always" swaplevel="1"/>
</gates>
<devices>
<device name="-LONG-PAD" package="JST-XH-06-PACKAGE-LONG-PAD">
<connects>
<connect gate="-1" pin="S" pad="1"/>
<connect gate="-2" pin="S" pad="2"/>
<connect gate="-3" pin="S" pad="3"/>
<connect gate="-4" pin="S" pad="4"/>
<connect gate="-5" pin="S" pad="5"/>
<connect gate="-6" pin="S" pad="6"/>
</connects>
<technologies>
<technology name=""/>
</technologies>
</device>
<device name="-ROUND-PAD" package="JST-XH-06-PACKAGE-ROUND-PAD">
<connects>
<connect gate="-1" pin="S" pad="1"/>
<connect gate="-2" pin="S" pad="2"/>
<connect gate="-3" pin="S" pad="3"/>
<connect gate="-4" pin="S" pad="4"/>
<connect gate="-5" pin="S" pad="5"/>
<connect gate="-6" pin="S" pad="6"/>
</connects>
<technologies>
<technology name=""/>
</technologies>
</device>
</devices>
</deviceset>
</devicesets>
</library>
</libraries>
<attributes>
</attributes>
<variantdefs>
</variantdefs>
<classes>
<class number="0" name="default" width="0" drill="0">
</class>
</classes>
<parts>
<part name="U$1" library="SCCDRRV100MDSA3" deviceset="SCCDRRV100MDSA3" device="SSCDRRV100MDSA3" package3d_urn="urn:adsk.eagle:package:23793141/1"/>
<part name="SPI_STANDARD" library="Rembrandt Electronics - JST XH Connectors v1-0" deviceset="JST-XH-06-PIN" device="-LONG-PAD" value="SPI"/>
<part name="P+1" library="supply1" library_urn="urn:adsk.eagle:library:371" deviceset="VCC" device=""/>
<part name="GND1" library="supply1" library_urn="urn:adsk.eagle:library:371" deviceset="GND" device=""/>
<part name="GND2" library="supply1" library_urn="urn:adsk.eagle:library:371" deviceset="GND" device=""/>
<part name="P+2" library="supply1" library_urn="urn:adsk.eagle:library:371" deviceset="VCC" device=""/>
</parts>
<sheets>
<sheet>
<plain>
</plain>
<instances>
<instance part="U$1" gate="G$1" x="58.42" y="68.58" smashed="yes"/>
<instance part="SPI_STANDARD" gate="-1" x="25.4" y="81.28" smashed="yes">
<attribute name="NAME" x="27.94" y="80.518" size="1.524" layer="95"/>
<attribute name="VALUE" x="24.638" y="82.677" size="1.778" layer="96"/>
</instance>
<instance part="SPI_STANDARD" gate="-2" x="25.4" y="78.74" smashed="yes">
<attribute name="NAME" x="27.94" y="77.978" size="1.524" layer="95"/>
</instance>
<instance part="SPI_STANDARD" gate="-3" x="25.4" y="76.2" smashed="yes">
<attribute name="NAME" x="27.94" y="75.438" size="1.524" layer="95"/>
</instance>
<instance part="SPI_STANDARD" gate="-4" x="25.4" y="73.66" smashed="yes">
<attribute name="NAME" x="27.94" y="72.898" size="1.524" layer="95"/>
</instance>
<instance part="SPI_STANDARD" gate="-5" x="25.4" y="71.12" smashed="yes">
<attribute name="NAME" x="27.94" y="70.358" size="1.524" layer="95"/>
</instance>
<instance part="SPI_STANDARD" gate="-6" x="25.4" y="68.58" smashed="yes">
<attribute name="NAME" x="27.94" y="67.818" size="1.524" layer="95"/>
</instance>
<instance part="P+1" gate="VCC" x="17.78" y="88.9" smashed="yes">
<attribute name="VALUE" x="15.24" y="86.36" size="1.778" layer="96" rot="R90"/>
</instance>
<instance part="GND1" gate="1" x="25.4" y="88.9" smashed="yes">
<attribute name="VALUE" x="22.86" y="86.36" size="1.778" layer="96"/>
</instance>
<instance part="GND2" gate="1" x="40.64" y="66.04" smashed="yes">
<attribute name="VALUE" x="38.1" y="63.5" size="1.778" layer="96"/>
</instance>
<instance part="P+2" gate="VCC" x="40.64" y="76.2" smashed="yes">
<attribute name="VALUE" x="38.1" y="73.66" size="1.778" layer="96" rot="R90"/>
</instance>
</instances>
<busses>
</busses>
<nets>
<net name="GND" class="0">
<segment>
<pinref part="SPI_STANDARD" gate="-1" pin="S"/>
<wire x1="22.86" y1="81.28" x2="20.32" y2="81.28" width="0.1524" layer="91"/>
<wire x1="20.32" y1="81.28" x2="20.32" y2="91.44" width="0.1524" layer="91"/>
<wire x1="20.32" y1="91.44" x2="25.4" y2="91.44" width="0.1524" layer="91"/>
<pinref part="GND1" gate="1" pin="GND"/>
</segment>
<segment>
<pinref part="U$1" gate="G$1" pin="GND"/>
<wire x1="53.34" y1="68.58" x2="40.64" y2="68.58" width="0.1524" layer="91"/>
<pinref part="GND2" gate="1" pin="GND"/>
</segment>
</net>
<net name="VCC" class="0">
<segment>
<pinref part="SPI_STANDARD" gate="-2" pin="S"/>
<wire x1="22.86" y1="78.74" x2="17.78" y2="78.74" width="0.1524" layer="91"/>
<pinref part="P+1" gate="VCC" pin="VCC"/>
<wire x1="17.78" y1="78.74" x2="17.78" y2="86.36" width="0.1524" layer="91"/>
</segment>
<segment>
<pinref part="U$1" gate="G$1" pin="VSUPPLY"/>
<wire x1="53.34" y1="71.12" x2="40.64" y2="71.12" width="0.1524" layer="91"/>
<pinref part="P+2" gate="VCC" pin="VCC"/>
<wire x1="40.64" y1="73.66" x2="40.64" y2="71.12" width="0.1524" layer="91"/>
</segment>
</net>
<net name="MISO" class="0">
<segment>
<pinref part="SPI_STANDARD" gate="-5" pin="S"/>
<wire x1="22.86" y1="71.12" x2="10.16" y2="71.12" width="0.1524" layer="91"/>
<label x="10.16" y="71.12" size="1.778" layer="95"/>
</segment>
<segment>
<pinref part="U$1" gate="G$1" pin="MISO"/>
<wire x1="53.34" y1="73.66" x2="43.18" y2="73.66" width="0.1524" layer="91"/>
<label x="43.18" y="73.66" size="1.778" layer="95"/>
</segment>
</net>
<net name="SCK" class="0">
<segment>
<pinref part="SPI_STANDARD" gate="-3" pin="S"/>
<wire x1="22.86" y1="76.2" x2="10.16" y2="76.2" width="0.1524" layer="91"/>
<label x="10.16" y="76.2" size="1.778" layer="95"/>
</segment>
<segment>
<pinref part="U$1" gate="G$1" pin="SCLK"/>
<wire x1="53.34" y1="76.2" x2="43.18" y2="76.2" width="0.1524" layer="91"/>
<label x="43.18" y="76.2" size="1.778" layer="95"/>
</segment>
</net>
<net name="MOSI" class="0">
<segment>
<pinref part="SPI_STANDARD" gate="-4" pin="S"/>
<wire x1="22.86" y1="73.66" x2="10.16" y2="73.66" width="0.1524" layer="91"/>
<label x="10.16" y="73.66" size="1.778" layer="95"/>
</segment>
</net>
<net name="SS" class="0">
<segment>
<pinref part="SPI_STANDARD" gate="-6" pin="S"/>
<wire x1="22.86" y1="68.58" x2="10.16" y2="68.58" width="0.1524" layer="91"/>
<label x="10.16" y="68.58" size="1.778" layer="95"/>
</segment>
<segment>
<pinref part="U$1" gate="G$1" pin="SS"/>
<wire x1="53.34" y1="78.74" x2="43.18" y2="78.74" width="0.1524" layer="91"/>
<label x="43.18" y="78.74" size="1.778" layer="95"/>
</segment>
</net>
</nets>
</sheet>
</sheets>
</schematic>
</drawing>
<compatibility>
<note version="8.2" severity="warning">
Since Version 8.2, EAGLE supports online libraries. The ids
of those online libraries will not be understood (or retained)
with this version.
</note>
<note version="8.3" severity="warning">
Since Version 8.3, EAGLE supports URNs for individual library
assets (packages, symbols, and devices). The URNs of those assets
will not be understood (or retained) with this version.
</note>
<note version="8.3" severity="warning">
Since Version 8.3, EAGLE supports the association of 3D packages
with devices in libraries, schematics, and board files. Those 3D
packages will not be understood (or retained) with this version.
</note>
</compatibility>
</eagle>
